com\example\HelloWorldStartWeb\controllers\SpeakerController.class
com\example\HelloWorldStartWeb\HelloWorldStartWebApplication.class
com\example\HelloWorldStartWeb\controllers\SessionController.class
com\example\HelloWorldStartWeb\models\Speaker.class
com\example\HelloWorldStartWeb\controllers\VersionController.class
com\example\HelloWorldStartWeb\config\PersistenceConfiguration.class
com\example\HelloWorldStartWeb\repositories\SpeakerRepository.class
com\example\HelloWorldStartWeb\repositories\SessionRepository.class
com\example\HelloWorldStartWeb\controllers\HelloController.class
com\example\HelloWorldStartWeb\models\Session.class
